{
  "_embedded": {
    "events": [{
      "name": "Statue of Liberty 90 Minute Cruise 4 Adults - Kids Ride Free",
      "type": "event",
      "id": "1Ae0ZfgGklNbka_",
      "test": false,
      "url": "https://www.ticketweb.com/event/statue-of-liberty-90-minute-pier-36-tickets/7808715?REFERRAL_ID=tmfeed",
      "locale": "en-us",
      "images": [{
        "ratio": "16_9",
        "url": "https://s1.ticketm.net/dam/c/03e/e15ef00f-2c87-4421-ae61-d740851a703e_105891_EVENT_DETAIL_PAGE_16_9.jpg",
        "width": 205,
        "height": 115,
        "fallback": true
      }, {
        "ratio": "3_2",
        "url": "https://s1.ticketm.net/dam/c/03e/e15ef00f-2c87-4421-ae61-d740851a703e_105891_RETINA_PORTRAIT_3_2.jpg",
        "width": 640,
        "height": 427,
        "fallback": true
      }, {
        "ratio": "16_9",
        "url": "https://s1.ticketm.net/dam/c/03e/e15ef00f-2c87-4421-ae61-d740851a703e_105891_RETINA_PORTRAIT_16_9.jpg",
        "width": 640,
        "height": 360,
        "fallback": true
      }, {
        "ratio": "16_9",
        "url": "https://s1.ticketm.net/dam/c/03e/e15ef00f-2c87-4421-ae61-d740851a703e_105891_RETINA_LANDSCAPE_16_9.jpg",
        "width": 1136,
        "height": 639,
        "fallback": true
      }, {
        "ratio": "16_9",
        "url": "https://s1.ticketm.net/dam/c/03e/e15ef00f-2c87-4421-ae61-d740851a703e_105891_TABLET_LANDSCAPE_LARGE_16_9.jpg",
        "width": 2048,
        "height": 1152,
        "fallback": true
      }, {
        "ratio": "3_2",
        "url": "https://s1.ticketm.net/dam/c/03e/e15ef00f-2c87-4421-ae61-d740851a703e_105891_ARTIST_PAGE_3_2.jpg",
        "width": 305,
        "height": 203,
        "fallback": true
      }, {
        "ratio": "16_9",
        "url": "https://s1.ticketm.net/dam/c/03e/e15ef00f-2c87-4421-ae61-d740851a703e_105891_RECOMENDATION_16_9.jpg",
        "width": 100,
        "height": 56,
        "fallback": true
      }, {
        "ratio": "16_9",
        "url": "https://s1.ticketm.net/dam/c/03e/e15ef00f-2c87-4421-ae61-d740851a703e_105891_TABLET_LANDSCAPE_16_9.jpg",
        "width": 1024,
        "height": 576,
        "fallback": true
      }, {
        "ratio": "4_3",
        "url": "https://s1.ticketm.net/dam/c/03e/e15ef00f-2c87-4421-ae61-d740851a703e_105891_CUSTOM.jpg",
        "width": 305,
        "height": 225,
        "fallback": true
      }, {
        "ratio": "3_2",
        "url": "https://s1.ticketm.net/dam/c/03e/e15ef00f-2c87-4421-ae61-d740851a703e_105891_TABLET_LANDSCAPE_3_2.jpg",
        "width": 1024,
        "height": 683,
        "fallback": true
      }],
      "sales": {
        "public": {
          "startDateTime": "2017-10-26T21:05:01Z",
          "startTBD": false,
          "endDateTime": "2019-06-24T20:55:00Z"
        }
      },
      "dates": {
        "start": {
          "localDate": "2018-04-23",
          "localTime": "10:00:00",
          "dateTime": "2018-04-23T14:00:00Z",
          "dateTBD": false,
          "dateTBA": false,
          "timeTBA": false,
          "noSpecificTime": false
        },
        "timezone": "America/New_York",
        "status": {
          "code": "onsale"
        },
        "spanMultipleDays": false
      },
      "classifications": [{
        "primary": true,
        "segment": {
          "id": "KZFzniwnSyZfZ7v7n1",
          "name": "Miscellaneous"
        },
        "genre": {
          "id": "KnvZfZ7v7ll",
          "name": "Undefined"
        },
        "subGenre": {
          "id": "KZazBEonSMnZfZ7vAv1",
          "name": "Undefined"
        },
        "type": {
          "id": "KZAyXgnZfZ7v7lt",
          "name": "Event Style"
        },
        "subType": {
          "id": "KZFzBErXgnZfZ7vAkE",
          "name": "Cruise"
        },
        "family": false
      }],
      "_links": {
        "self": {
          "href": "/discovery/v2/events/1Ae0ZfgGklNbka_?locale=en-us"
        },
        "venues": [{
          "href": "/discovery/v2/venues/KovZpZAFlneA?locale=en-us"
        }]
      },
      "_embedded": {
        "venues": [{
          "name": "Pier 36",
          "type": "venue",
          "id": "KovZpZAFlneA",
          "test": false,
          "url": "http://www.ticketmaster.com/pier-36-tickets-new-york/venue/343038",
          "locale": "en-us",
          "postalCode": "10002",
          "timezone": "America/New_York",
          "city": {
            "name": "New York"
          },
          "state": {
            "name": "New York",
            "stateCode": "NY"
          },
          "country": {
            "name": "United States Of America",
            "countryCode": "US"
          },
          "address": {
            "line1": "299 South Street"
          },
          "location": {
            "longitude": "-73.98537085",
            "latitude": "40.71067572"
          },
          "markets": [{
            "id": "35"
          }],
          "dmas": [{
            "id": 345
          }],
          "upcomingEvents": {
            "_total": 716,
            "ticketmaster": 716
          },
          "_links": {
            "self": {
              "href": "/discovery/v2/venues/KovZpZAFlneA?locale=en-us"
            }
          }
        }]
      }
    }, {
      "name": "Statue of Liberty Cruise 90 Minutes Kids Ride Free!",
      "type": "event",
      "id": "1k18vKpKGA1FKh3",
      "test": false,
      "url": "http://www.ticketweb.com/event/statue-of-liberty-cruise-90-pier-36-tickets/7797915?REFERRAL_ID=tmfeed",
      "locale": "en-us",
      "images": [{
        "ratio": "16_9",
        "url": "https://s1.ticketm.net/dam/c/03e/e15ef00f-2c87-4421-ae61-d740851a703e_105891_EVENT_DETAIL_PAGE_16_9.jpg",
        "width": 205,
        "height": 115,
        "fallback": true
      }, {
        "ratio": "3_2",
        "url": "https://s1.ticketm.net/dam/c/03e/e15ef00f-2c87-4421-ae61-d740851a703e_105891_RETINA_PORTRAIT_3_2.jpg",
        "width": 640,
        "height": 427,
        "fallback": true
      }, {
        "ratio": "16_9",
        "url": "https://s1.ticketm.net/dam/c/03e/e15ef00f-2c87-4421-ae61-d740851a703e_105891_RETINA_PORTRAIT_16_9.jpg",
        "width": 640,
        "height": 360,
        "fallback": true
      }, {
        "ratio": "16_9",
        "url": "https://s1.ticketm.net/dam/c/03e/e15ef00f-2c87-4421-ae61-d740851a703e_105891_RETINA_LANDSCAPE_16_9.jpg",
        "width": 1136,
        "height": 639,
        "fallback": true
      }, {
        "ratio": "16_9",
        "url": "https://s1.ticketm.net/dam/c/03e/e15ef00f-2c87-4421-ae61-d740851a703e_105891_TABLET_LANDSCAPE_LARGE_16_9.jpg",
        "width": 2048,
        "height": 1152,
        "fallback": true
      }, {
        "ratio": "3_2",
        "url": "https://s1.ticketm.net/dam/c/03e/e15ef00f-2c87-4421-ae61-d740851a703e_105891_ARTIST_PAGE_3_2.jpg",
        "width": 305,
        "height": 203,
        "fallback": true
      }, {
        "ratio": "16_9",
        "url": "https://s1.ticketm.net/dam/c/03e/e15ef00f-2c87-4421-ae61-d740851a703e_105891_RECOMENDATION_16_9.jpg",
        "width": 100,
        "height": 56,
        "fallback": true
      }, {
        "ratio": "16_9",
        "url": "https://s1.ticketm.net/dam/c/03e/e15ef00f-2c87-4421-ae61-d740851a703e_105891_TABLET_LANDSCAPE_16_9.jpg",
        "width": 1024,
        "height": 576,
        "fallback": true
      }, {
        "ratio": "4_3",
        "url": "https://s1.ticketm.net/dam/c/03e/e15ef00f-2c87-4421-ae61-d740851a703e_105891_CUSTOM.jpg",
        "width": 305,
        "height": 225,
        "fallback": true
      }, {
        "ratio": "3_2",
        "url": "https://s1.ticketm.net/dam/c/03e/e15ef00f-2c87-4421-ae61-d740851a703e_105891_TABLET_LANDSCAPE_3_2.jpg",
        "width": 1024,
        "height": 683,
        "fallback": true
      }],
      "sales": {
        "public": {
          "startDateTime": "2017-10-26T00:15:01Z",
          "startTBD": false,
          "endDateTime": "2019-06-28T20:55:00Z"
        }
      },
      "dates": {
        "start": {
          "localDate": "2018-04-23",
          "localTime": "10:00:00",
          "dateTime": "2018-04-23T14:00:00Z",
          "dateTBD": false,
          "dateTBA": false,
          "timeTBA": false,
          "noSpecificTime": false
        },
        "timezone": "America/New_York",
        "status": {
          "code": "onsale"
        },
        "spanMultipleDays": false
      },
      "classifications": [{
        "primary": true,
        "segment": {
          "id": "KZFzniwnSyZfZ7v7n1",
          "name": "Miscellaneous"
        },
        "genre": {
          "id": "KnvZfZ7v7ll",
          "name": "Undefined"
        },
        "subGenre": {
          "id": "KZazBEonSMnZfZ7vAv1",
          "name": "Undefined"
        },
        "type": {
          "id": "KZAyXgnZfZ7v7lt",
          "name": "Event Style"
        },
        "subType": {
          "id": "KZFzBErXgnZfZ7vAkE",
          "name": "Cruise"
        },
        "family": false
      }],
      "_links": {
        "self": {
          "href": "/discovery/v2/events/1k18vKpKGA1FKh3?locale=en-us"
        },
        "venues": [{
          "href": "/discovery/v2/venues/KovZpZAFlneA?locale=en-us"
        }]
      },
      "_embedded": {
        "venues": [{
          "name": "Pier 36",
          "type": "venue",
          "id": "KovZpZAFlneA",
          "test": false,
          "url": "http://www.ticketmaster.com/pier-36-tickets-new-york/venue/343038",
          "locale": "en-us",
          "postalCode": "10002",
          "timezone": "America/New_York",
          "city": {
            "name": "New York"
          },
          "state": {
            "name": "New York",
            "stateCode": "NY"
          },
          "country": {
            "name": "United States Of America",
            "countryCode": "US"
          },
          "address": {
            "line1": "299 South Street"
          },
          "location": {
            "longitude": "-73.98537085",
            "latitude": "40.71067572"
          },
          "markets": [{
            "id": "35"
          }],
          "dmas": [{
            "id": 345
          }],
          "upcomingEvents": {
            "_total": 716,
            "ticketmaster": 716
          },
          "_links": {
            "self": {
              "href": "/discovery/v2/venues/KovZpZAFlneA?locale=en-us"
            }
          }
        }]
      }
    }, {
      "name": "Statue of Liberty Cruise 2 Adults Weekdays Mon-Thurs 10am-4pm",
      "type": "event",
      "id": "1k18vKpfGAGU4rC",
      "test": false,
      "url": "http://www.ticketweb.com/event/statue-of-liberty-cruise-2-pier-36-tickets/7803065?REFERRAL_ID=tmfeed",
      "locale": "en-us",
      "images": [{
        "ratio": "16_9",
        "url": "https://s1.ticketm.net/dam/c/03e/e15ef00f-2c87-4421-ae61-d740851a703e_105891_EVENT_DETAIL_PAGE_16_9.jpg",
        "width": 205,
        "height": 115,
        "fallback": true
      }, {
        "ratio": "3_2",
        "url": "https://s1.ticketm.net/dam/c/03e/e15ef00f-2c87-4421-ae61-d740851a703e_105891_RETINA_PORTRAIT_3_2.jpg",
        "width": 640,
        "height": 427,
        "fallback": true
      }, {
        "ratio": "16_9",
        "url": "https://s1.ticketm.net/dam/c/03e/e15ef00f-2c87-4421-ae61-d740851a703e_105891_RETINA_PORTRAIT_16_9.jpg",
        "width": 640,
        "height": 360,
        "fallback": true
      }, {
        "ratio": "16_9",
        "url": "https://s1.ticketm.net/dam/c/03e/e15ef00f-2c87-4421-ae61-d740851a703e_105891_RETINA_LANDSCAPE_16_9.jpg",
        "width": 1136,
        "height": 639,
        "fallback": true
      }, {
        "ratio": "16_9",
        "url": "https://s1.ticketm.net/dam/c/03e/e15ef00f-2c87-4421-ae61-d740851a703e_105891_TABLET_LANDSCAPE_LARGE_16_9.jpg",
        "width": 2048,
        "height": 1152,
        "fallback": true
      }, {
        "ratio": "3_2",
        "url": "https://s1.ticketm.net/dam/c/03e/e15ef00f-2c87-4421-ae61-d740851a703e_105891_ARTIST_PAGE_3_2.jpg",
        "width": 305,
        "height": 203,
        "fallback": true
      }, {
        "ratio": "16_9",
        "url": "https://s1.ticketm.net/dam/c/03e/e15ef00f-2c87-4421-ae61-d740851a703e_105891_RECOMENDATION_16_9.jpg",
        "width": 100,
        "height": 56,
        "fallback": true
      }, {
        "ratio": "16_9",
        "url": "https://s1.ticketm.net/dam/c/03e/e15ef00f-2c87-4421-ae61-d740851a703e_105891_TABLET_LANDSCAPE_16_9.jpg",
        "width": 1024,
        "height": 576,
        "fallback": true
      }, {
        "ratio": "4_3",
        "url": "https://s1.ticketm.net/dam/c/03e/e15ef00f-2c87-4421-ae61-d740851a703e_105891_CUSTOM.jpg",
        "width": 305,
        "height": 225,
        "fallback": true
      }, {
        "ratio": "3_2",
        "url": "https://s1.ticketm.net/dam/c/03e/e15ef00f-2c87-4421-ae61-d740851a703e_105891_TABLET_LANDSCAPE_3_2.jpg",
        "width": 1024,
        "height": 683,
        "fallback": true
      }],
      "sales": {
        "public": {
          "startDateTime": "2017-10-26T02:05:01Z",
          "startTBD": false,
          "endDateTime": "2019-06-27T08:00:00Z"
        }
      },
      "dates": {
        "start": {
          "localDate": "2018-04-23",
          "localTime": "10:00:00",
          "dateTime": "2018-04-23T14:00:00Z",
          "dateTBD": false,
          "dateTBA": false,
          "timeTBA": false,
          "noSpecificTime": false
        },
        "timezone": "America/New_York",
        "status": {
          "code": "onsale"
        },
        "spanMultipleDays": false
      },
      "classifications": [{
        "primary": true,
        "segment": {
          "id": "KZFzniwnSyZfZ7v7n1",
          "name": "Miscellaneous"
        },
        "genre": {
          "id": "KnvZfZ7v7ll",
          "name": "Undefined"
        },
        "subGenre": {
          "id": "KZazBEonSMnZfZ7vAv1",
          "name": "Undefined"
        },
        "type": {
          "id": "KZAyXgnZfZ7v7lt",
          "name": "Event Style"
        },
        "subType": {
          "id": "KZFzBErXgnZfZ7vAkE",
          "name": "Cruise"
        },
        "family": false
      }],
      "_links": {
        "self": {
          "href": "/discovery/v2/events/1k18vKpfGAGU4rC?locale=en-us"
        },
        "venues": [{
          "href": "/discovery/v2/venues/KovZpZAFlneA?locale=en-us"
        }]
      },
      "_embedded": {
        "venues": [{
          "name": "Pier 36",
          "type": "venue",
          "id": "KovZpZAFlneA",
          "test": false,
          "url": "http://www.ticketmaster.com/pier-36-tickets-new-york/venue/343038",
          "locale": "en-us",
          "postalCode": "10002",
          "timezone": "America/New_York",
          "city": {
            "name": "New York"
          },
          "state": {
            "name": "New York",
            "stateCode": "NY"
          },
          "country": {
            "name": "United States Of America",
            "countryCode": "US"
          },
          "address": {
            "line1": "299 South Street"
          },
          "location": {
            "longitude": "-73.98537085",
            "latitude": "40.71067572"
          },
          "markets": [{
            "id": "35"
          }],
          "dmas": [{
            "id": 345
          }],
          "upcomingEvents": {
            "_total": 716,
            "ticketmaster": 716
          },
          "_links": {
            "self": {
              "href": "/discovery/v2/venues/KovZpZAFlneA?locale=en-us"
            }
          }
        }]
      }
    }, {
      "name": "Blue Man Group At the Astor Place Theatre",
      "type": "event",
      "id": "vv17GZfzGkmlKK5P",
      "test": false,
      "url": "http://www.ticketmaster.com/blue-man-group-at-the-astor-new-york-new-york-04-23-2018/event/0300538BAB4D32E5",
      "locale": "en-us",
      "images": [{
        "ratio": "16_9",
        "url": "https://s1.ticketm.net/dam/a/2a2/4f684f2c-5472-4c26-8729-25ca6949e2a2_48751_TABLET_LANDSCAPE_LARGE_16_9.jpg",
        "width": 2048,
        "height": 1152,
        "fallback": false
      }, {
        "ratio": "3_2",
        "url": "https://s1.ticketm.net/dam/a/2a2/4f684f2c-5472-4c26-8729-25ca6949e2a2_48751_TABLET_LANDSCAPE_3_2.jpg",
        "width": 1024,
        "height": 683,
        "fallback": false
      }, {
        "ratio": "16_9",
        "url": "https://s1.ticketm.net/dam/a/2a2/4f684f2c-5472-4c26-8729-25ca6949e2a2_48751_RECOMENDATION_16_9.jpg",
        "width": 100,
        "height": 56,
        "fallback": false
      }, {
        "ratio": "16_9",
        "url": "https://s1.ticketm.net/dam/a/2a2/4f684f2c-5472-4c26-8729-25ca6949e2a2_48751_EVENT_DETAIL_PAGE_16_9.jpg",
        "width": 205,
        "height": 115,
        "fallback": false
      }, {
        "ratio": "16_9",
        "url": "https://s1.ticketm.net/dam/a/2a2/4f684f2c-5472-4c26-8729-25ca6949e2a2_48751_TABLET_LANDSCAPE_16_9.jpg",
        "width": 1024,
        "height": 576,
        "fallback": false
      }, {
        "ratio": "16_9",
        "url": "https://s1.ticketm.net/dam/a/2a2/4f684f2c-5472-4c26-8729-25ca6949e2a2_48751_RETINA_LANDSCAPE_16_9.jpg",
        "width": 1136,
        "height": 639,
        "fallback": false
      }, {
        "ratio": "4_3",
        "url": "https://s1.ticketm.net/dam/a/2a2/4f684f2c-5472-4c26-8729-25ca6949e2a2_48751_CUSTOM.jpg",
        "width": 305,
        "height": 225,
        "fallback": false
      }, {
        "ratio": "3_2",
        "url": "https://s1.ticketm.net/dam/a/2a2/4f684f2c-5472-4c26-8729-25ca6949e2a2_48751_ARTIST_PAGE_3_2.jpg",
        "width": 305,
        "height": 203,
        "fallback": false
      }, {
        "ratio": "3_2",
        "url": "https://s1.ticketm.net/dam/a/2a2/4f684f2c-5472-4c26-8729-25ca6949e2a2_48751_RETINA_PORTRAIT_3_2.jpg",
        "width": 640,
        "height": 427,
        "fallback": false
      }, {
        "ratio": "16_9",
        "url": "https://s1.ticketm.net/dam/a/2a2/4f684f2c-5472-4c26-8729-25ca6949e2a2_48751_RETINA_PORTRAIT_16_9.jpg",
        "width": 640,
        "height": 360,
        "fallback": false
      }],
      "sales": {
        "public": {
          "startDateTime": "2017-12-18T17:30:00Z",
          "startTBD": false,
          "endDateTime": "2018-04-23T15:30:00Z"
        }
      },
      "dates": {
        "start": {
          "localDate": "2018-04-23",
          "localTime": "11:30:00",
          "dateTime": "2018-04-23T15:30:00Z",
          "dateTBD": false,
          "dateTBA": false,
          "timeTBA": false,
          "noSpecificTime": false
        },
        "timezone": "America/New_York",
        "status": {
          "code": "offsale"
        },
        "spanMultipleDays": false
      },
      "classifications": [{
        "primary": true,
        "segment": {
          "id": "KZFzniwnSyZfZ7v7na",
          "name": "Arts & Theatre"
        },
        "genre": {
          "id": "KnvZfZ7v7la",
          "name": "Spectacular"
        },
        "subGenre": {
          "id": "KZazBEonSMnZfZ7v7lE",
          "name": "Spectacular"
        },
        "type": {
          "id": "KZAyXgnZfZ7v7nI",
          "name": "Undefined"
        },
        "subType": {
          "id": "KZFzBErXgnZfZ7v7lJ",
          "name": "Undefined"
        },
        "family": false
      }],
      "promoter": {
        "id": "494",
        "name": "PROMOTED BY VENUE",
        "description": "PROMOTED BY VENUE / NTL / USA"
      },
      "promoters": [{
        "id": "494",
        "name": "PROMOTED BY VENUE",
        "description": "PROMOTED BY VENUE / NTL / USA"
      }],
      "pleaseNote": "Recommended for children 3 years and up. Everyone, regardless of age, must have a ticket to enter the theater. The Astor Place Theatre is currently unable to provide barrier-free access to wheelchair-bound patrons. Patrons confined to a wheelchair are welcome to attend our show, however, such patrons must bring companions to assist them in their entry and exit from the theatre, and must be able to physically transfer into a standard theatre seat. For further information, please contact our Customer Service at 212-254-4371. Strobe lights will be used during the performance. The blue men do use a variety of materials on stage and at times those materials get into the audience close to the stage. While it does not happen all the time, we do strongly suggest that you do not wear clothing that you consider nice or valuable. We encourage casual attire for the show. Jeans and sneakers are ideal.",
      "priceRanges": [{
        "type": "standard",
        "currency": "USD",
        "min": 80.0,
        "max": 120.0
      }],
      "seatmap": {
        "staticUrl": "https://s1.ticketm.net/tmimages/venue/maps/ny4/32349s.gif"
      },
      "_links": {
        "self": {
          "href": "/discovery/v2/events/vv17GZfzGkmlKK5P?locale=en-us"
        },
        "attractions": [{
          "href": "/discovery/v2/attractions/K8vZ9171x1f?locale=en-us"
        }],
        "venues": [{
          "href": "/discovery/v2/venues/KovZpZAFdJIA?locale=en-us"
        }]
      },
      "_embedded": {
        "venues": [{
          "name": "Astor Place Theatre",
          "type": "venue",
          "id": "KovZpZAFdJIA",
          "test": false,
          "url": "http://www.ticketmaster.com/astor-place-theatre-tickets-new-york/venue/24600",
          "locale": "en-us",
          "images": [{
            "ratio": "16_9",
            "url": "https://s1.ticketm.net/dbimages/9927v.",
            "width": 205,
            "height": 115,
            "fallback": false
          }],
          "postalCode": "10003",
          "timezone": "America/New_York",
          "city": {
            "name": "New York"
          },
          "state": {
            "name": "New York",
            "stateCode": "NY"
          },
          "country": {
            "name": "United States Of America",
            "countryCode": "US"
          },
          "address": {
            "line1": "434 Lafayette Street"
          },
          "location": {
            "longitude": "-73.99179455",
            "latitude": "40.72922383"
          },
          "markets": [{
            "id": "35"
          }, {
            "id": "55"
          }, {
            "id": "124"
          }],
          "dmas": [{
            "id": 296
          }, {
            "id": 345
          }, {
            "id": 422
          }],
          "boxOfficeInfo": {
            "phoneNumberDetail": "Box Office Number: (212) 387-9415 EXT 2310 Email : nyshowinfo@blueman.com Group Sales: Groups of 10+ call for rates (212) 260-8993 or newyorkgroups@blueman.com Opens : Mon-Fri 10am - 6pm Closed on weekend and major holidays",
            "openHoursDetail": "Mon-Sun 12pm-7:45pm On non-performance days the box office is open from 12pm-4pm",
            "acceptedPaymentDetail": "Cash, American Express, Visa, MasterCard, Discover, Diners Club",
            "willCallDetail": "Pick up tickets 1/2 hour prior to show. Customer must present the actual credit card used to place the order and a photo ID."
          },
          "parkingDetail": "There are two parking garages conveniently located on Lafayette Street at 403 and 410 Lafayette Street. Blue Man Group offers a discount for patrons, visit www.BlueMan.com to get the coupon.",
          "accessibleSeatingDetail": "Theatre is not wheelchair accessible. Patrons must be able to negotiate 4 - 8 steps to enter lobby and theatre. No elevators or escalators. Email Customer Service at nyshowinfo@blueman.com for more information.",
          "generalInfo": {
            "generalRule": "Tickets are generally on sale 6 months in advance, and the show is an open run NO smoking, cameras, video or recording devices permitted in the theatre. There is no dress code, casual dress is encouraged.",
            "childRule": "Recommended for children 3 years and up. All children must have a ticket."
          },
          "upcomingEvents": {
            "_total": 423,
            "ticketmaster": 423
          },
          "_links": {
            "self": {
              "href": "/discovery/v2/venues/KovZpZAFdJIA?locale=en-us"
            }
          }
        }],
        "attractions": [{
          "name": "Blue Man Group",
          "type": "attraction",
          "id": "K8vZ9171x1f",
          "test": false,
          "url": "http://www.ticketmaster.com/blue-man-group-tickets/artist/843991",
          "locale": "en-us",
          "images": [{
            "ratio": "16_9",
            "url": "https://s1.ticketm.net/dam/a/2a2/4f684f2c-5472-4c26-8729-25ca6949e2a2_48751_TABLET_LANDSCAPE_LARGE_16_9.jpg",
            "width": 2048,
            "height": 1152,
            "fallback": false
          }, {
            "ratio": "3_2",
            "url": "https://s1.ticketm.net/dam/a/2a2/4f684f2c-5472-4c26-8729-25ca6949e2a2_48751_TABLET_LANDSCAPE_3_2.jpg",
            "width": 1024,
            "height": 683,
            "fallback": false
          }, {
            "ratio": "16_9",
            "url": "https://s1.ticketm.net/dam/a/2a2/4f684f2c-5472-4c26-8729-25ca6949e2a2_48751_RECOMENDATION_16_9.jpg",
            "width": 100,
            "height": 56,
            "fallback": false
          }, {
            "ratio": "16_9",
            "url": "https://s1.ticketm.net/dam/a/2a2/4f684f2c-5472-4c26-8729-25ca6949e2a2_48751_EVENT_DETAIL_PAGE_16_9.jpg",
            "width": 205,
            "height": 115,
            "fallback": false
          }, {
            "ratio": "16_9",
            "url": "https://s1.ticketm.net/dam/a/2a2/4f684f2c-5472-4c26-8729-25ca6949e2a2_48751_TABLET_LANDSCAPE_16_9.jpg",
            "width": 1024,
            "height": 576,
            "fallback": false
          }, {
            "ratio": "16_9",
            "url": "https://s1.ticketm.net/dam/a/2a2/4f684f2c-5472-4c26-8729-25ca6949e2a2_48751_RETINA_LANDSCAPE_16_9.jpg",
            "width": 1136,
            "height": 639,
            "fallback": false
          }, {
            "ratio": "4_3",
            "url": "https://s1.ticketm.net/dam/a/2a2/4f684f2c-5472-4c26-8729-25ca6949e2a2_48751_CUSTOM.jpg",
            "width": 305,
            "height": 225,
            "fallback": false
          }, {
            "ratio": "3_2",
            "url": "https://s1.ticketm.net/dam/a/2a2/4f684f2c-5472-4c26-8729-25ca6949e2a2_48751_ARTIST_PAGE_3_2.jpg",
            "width": 305,
            "height": 203,
            "fallback": false
          }, {
            "ratio": "3_2",
            "url": "https://s1.ticketm.net/dam/a/2a2/4f684f2c-5472-4c26-8729-25ca6949e2a2_48751_RETINA_PORTRAIT_3_2.jpg",
            "width": 640,
            "height": 427,
            "fallback": false
          }, {
            "ratio": "16_9",
            "url": "https://s1.ticketm.net/dam/a/2a2/4f684f2c-5472-4c26-8729-25ca6949e2a2_48751_RETINA_PORTRAIT_16_9.jpg",
            "width": 640,
            "height": 360,
            "fallback": false
          }],
          "classifications": [{
            "primary": true,
            "segment": {
              "id": "KZFzniwnSyZfZ7v7na",
              "name": "Arts & Theatre"
            },
            "genre": {
              "id": "KnvZfZ7v7la",
              "name": "Spectacular"
            },
            "subGenre": {
              "id": "KZazBEonSMnZfZ7v7lE",
              "name": "Spectacular"
            },
            "type": {
              "id": "KZAyXgnZfZ7v7lt",
              "name": "Event Style"
            },
            "subType": {
              "id": "KZFzBErXgnZfZ7vAAt",
              "name": "Touring Show/Production"
            },
            "family": false
          }],
          "upcomingEvents": {
            "_total": 1280,
            "mfx-de": 72,
            "ticketmaster": 1208
          },
          "_links": {
            "self": {
              "href": "/discovery/v2/attractions/K8vZ9171x1f?locale=en-us"
            }
          }
        }]
      }
    }]
  },
  "_links": {
    "first": {
      "href": "/discovery/v2/events.json?startDateTime=2018-04-18T00%3A00%3A00Z&city=new+york&radius=100&page=0&size=4&sort=date,asc"
    },
    "self": {
      "href": "/discovery/v2/events.json?startDateTime=2018-04-18T00%3A00%3A00Z&size=4&city=new+york&page=0&sort=date%2Casc&radius=100"
    },
    "next": {
      "href": "/discovery/v2/events.json?startDateTime=2018-04-18T00%3A00%3A00Z&city=new+york&radius=100&page=1&size=4&sort=date,asc"
    },
    "last": {
      "href": "/discovery/v2/events.json?startDateTime=2018-04-18T00%3A00%3A00Z&city=new+york&radius=100&page=3535&size=4&sort=date,asc"
    }
  },
  "page": {
    "size": 4,
    "totalElements": 14141,
    "totalPages": 3536,
    "number": 0
  }
}
